<?xml version="1.0" encoding="UTF-8"?>
<svg width="13px" height="9px" viewBox="0 0 13 9" version="1.1" xmlns="http://www.w3.org/2000/svg" xmlns:xlink="http://www.w3.org/1999/xlink">
    <title>Line</title>
    <g id="Page-1" stroke="none" stroke-width="1" fill="none" fill-rule="evenodd">
        <g id="Main-Interface" transform="translate(-335.000000, -138.000000)" fill="#2AD699" fill-rule="nonzero">
            <g id="Group-17" transform="translate(247.000000, 123.000000)">
                <path id="Line" d="M92.0714286,15.0348837 L101.071429,19.5348837 L92.0714286,24.0348837 L92.071,20.034 L88.9285714,20.0348837 L88.9285714,19.0348837 L92.071,19.034 L92.0714286,15.0348837 Z"></path>
            </g>
        </g>
    </g>
</svg>